pipeline {
	agent any 
		stages { 
			stage('Bitbucket') {
				steps {
					echo '********* SCM stage is starting **********'
					git 'url https://bitbucket.org/nath_deb006/my_dotnet_hellowrld_app/src/master/'
				}
			}
		}
}

